{
	"function": {
		"frontEnd": {
			"build": true,
			"providerPlugin": "awscloudformation",
			"service": "Lambda"
		}
	},
	"api": {
		"reactNativeApp": {
			"service": "API Gateway",
			"providerPlugin": "awscloudformation",
			"dependsOn": [
				{
					"category": "function",
					"resourceName": "frontEnd",
					"attributes": [
						"Name",
						"Arn"
					]
				}
			]
		}
	},
	"auth": {
		"frontende0ed2217": {
			"service": "Cognito",
			"providerPlugin": "awscloudformation",
			"dependsOn": [],
			"customAuth": false
		}
	}
}