{
    "dev": {
        "awscloudformation": {
            "AuthRoleName": "amplify-frontend-dev-192235-authRole",
            "UnauthRoleArn": "arn:aws:iam::787286793821:role/amplify-frontend-dev-192235-unauthRole",
            "AuthRoleArn": "arn:aws:iam::787286793821:role/amplify-frontend-dev-192235-authRole",
            "Region": "ap-south-1",
            "DeploymentBucketName": "amplify-frontend-dev-192235-deployment",
            "UnauthRoleName": "amplify-frontend-dev-192235-unauthRole",
            "StackName": "amplify-frontend-dev-192235",
            "StackId": "arn:aws:cloudformation:ap-south-1:787286793821:stack/amplify-frontend-dev-192235/aeab03b0-9845-11ea-bfa1-027feff0383e",
            "AmplifyAppId": "d3gixjzdwthu28"
        },
        "categories": {
            "auth": {
                "frontende0ed2217": {}
            }
        }
    }
}