{
    "categories":[
        {
            "CategoryName":"Political",
            "thumbURL":"https://w7.pngwing.com/pngs/787/546/png-transparent-planet-earth-world-globe-computer-icons-world-icon-miscellaneous-logo-world.png"
        },
        {
            "CategoryName":"World",
            "thumbURL":"https://w7.pngwing.com/pngs/787/546/png-transparent-planet-earth-world-globe-computer-icons-world-icon-miscellaneous-logo-world.png"
        },
        {
            "CategoryName":"Food",
            "thumbURL":"https://w7.pngwing.com/pngs/787/546/png-transparent-planet-earth-world-globe-computer-icons-world-icon-miscellaneous-logo-world.png"
        }
    ]
}